module geo

go 1.19

require (
	github.com/cespare/xxhash/v2 v2.2.0 // indirect
	github.com/dgryski/go-rendezvous v0.0.0-20200823014737-9f7001d12a5f // indirect
	github.com/ekomobile/dadata/v2 v2.10.0 // indirect
	github.com/golang/protobuf v1.5.3 // indirect
	github.com/lib/pq v1.10.9 // indirect
	github.com/redis/go-redis/v9 v9.5.1 // indirect
	gitlab.com/noleeen/protogeo v1.0.4 // indirect
	golang.org/x/net v0.20.0 // indirect
	golang.org/x/sys v0.16.0 // indirect
	golang.org/x/text v0.14.0 // indirect
	google.golang.org/genproto/googleapis/rpc v0.0.0-20240123012728-ef4313101c80 // indirect
	google.golang.org/grpc v1.62.1 // indirect
	google.golang.org/protobuf v1.33.0 // indirect
)
